-- Merging decision tree log ---
manifest
ADDED from /home/marcelopc/apps/lojaonline/android/app/src/main/AndroidManifest.xml:1:1-30:12
INJECTED from /home/marcelopc/apps/lojaonline/android/app/src/main/AndroidManifest.xml:1:1-30:12
INJECTED from /home/marcelopc/apps/lojaonline/android/app/src/main/AndroidManifest.xml:1:1-30:12
INJECTED from /home/marcelopc/apps/lojaonline/android/app/src/main/AndroidManifest.xml:1:1-30:12
MERGED from /home/marcelopc/apps/lojaonline/android/app/src/main/AndroidManifest.xml:1:1-30:12
MERGED from [:cloud_firestore] /home/marcelopc/apps/lojaonline/build/cloud_firestore/intermediates/library_manifest/debug/AndroidManifest.xml:2:1-15:12
MERGED from [:firebase_auth] /home/marcelopc/apps/lojaonline/build/firebase_auth/intermediates/library_manifest/debug/AndroidManifest.xml:2:1-15:12
MERGED from [:firebase_core] /home/marcelopc/apps/lojaonline/build/firebase_core/intermediates/library_manifest/debug/AndroidManifest.xml:2:1-15:12
MERGED from [:firebase_core_web] /home/marcelopc/apps/lojaonline/build/firebase_core_web/intermediates/library_manifest/debug/AndroidManifest.xml:2:1-7:12
MERGED from [:path_provider] /home/marcelopc/apps/lojaonline/build/path_provider/intermediates/library_manifest/debug/AndroidManifest.xml:2:1-7:12
MERGED from [:path_provider_macos] /home/marcelopc/apps/lojaonline/build/path_provider_macos/intermediates/library_manifest/debug/AndroidManifest.xml:2:1-7:12
MERGED from [:firebase_messaging] /home/marcelopc/apps/lojaonline/build/firebase_messaging/intermediates/library_manifest/debug/AndroidManifest.xml:2:1-20:12
MERGED from [:url_launcher] /home/marcelopc/apps/lojaonline/build/url_launcher/intermediates/library_manifest/debug/AndroidManifest.xml:2:1-14:12
MERGED from [:url_launcher_macos] /home/marcelopc/apps/lojaonline/build/url_launcher_macos/intermediates/library_manifest/debug/AndroidManifest.xml:2:1-7:12
MERGED from [:url_launcher_web] /home/marcelopc/apps/lojaonline/build/url_launcher_web/intermediates/library_manifest/debug/AndroidManifest.xml:2:1-7:12
MERGED from [androidx.multidex:multidex:2.0.0] /home/marcelopc/.gradle/caches/transforms-2/files-2.1/5fc3fee7c271862c68f6fe7fadbd7329/multidex-2.0.0/AndroidManifest.xml:17:1-22:12
MERGED from [com.google.firebase:firebase-messaging:20.0.1] /home/marcelopc/.gradle/caches/transforms-2/files-2.1/6cd6426212cdb1bf79fdfc9b01a079e7/jetified-firebase-messaging-20.0.1/AndroidManifest.xml:17:1-37:12
MERGED from [com.google.firebase:firebase-firestore:21.3.0] /home/marcelopc/.gradle/caches/transforms-2/files-2.1/dc0b0281a640e0365d4704daae1fa9b5/jetified-firebase-firestore-21.3.0/AndroidManifest.xml:2:1-26:12
MERGED from [com.google.firebase:firebase-auth:17.0.0] /home/marcelopc/.gradle/caches/transforms-2/files-2.1/24b2885a54d0e5c0779b713addd18cb9/jetified-firebase-auth-17.0.0/AndroidManifest.xml:17:1-42:12
MERGED from [com.google.firebase:firebase-iid:20.0.1] /home/marcelopc/.gradle/caches/transforms-2/files-2.1/fd68efa81c2b8da8d9b8d6caa1349342/firebase-iid-20.0.1/AndroidManifest.xml:17:1-47:12
MERGED from [com.google.firebase:firebase-auth-interop:18.0.0] /home/marcelopc/.gradle/caches/transforms-2/files-2.1/878a275d5de0f2b801549530282ce765/firebase-auth-interop-18.0.0/AndroidManifest.xml:2:1-10:12
MERGED from [com.google.firebase:firebase-common:19.3.0] /home/marcelopc/.gradle/caches/transforms-2/files-2.1/7c91a20b951605a6190c91148e86e200/jetified-firebase-common-19.3.0/AndroidManifest.xml:15:1-39:12
MERGED from [com.google.android.gms:play-services-flags:16.0.1] /home/marcelopc/.gradle/caches/transforms-2/files-2.1/07eed15e86322dbf65996890e900ee71/play-services-flags-16.0.1/AndroidManifest.xml:17:1-22:12
MERGED from [com.google.firebase:firebase-iid-interop:17.0.0] /home/marcelopc/.gradle/caches/transforms-2/files-2.1/9d96085613f94406155ef74cac32e962/firebase-iid-interop-17.0.0/AndroidManifest.xml:2:1-10:12
MERGED from [com.google.android.gms:play-services-base:17.0.0] /home/marcelopc/.gradle/caches/transforms-2/files-2.1/12172bd92333b24a6ca38dc2aa663cea/play-services-base-17.0.0/AndroidManifest.xml:17:1-29:12
MERGED from [com.google.android.gms:play-services-tasks:17.0.0] /home/marcelopc/.gradle/caches/transforms-2/files-2.1/b3beacd4a0607e104da108862e66a8bb/play-services-tasks-17.0.0/AndroidManifest.xml:2:1-9:12
MERGED from [com.google.firebase:firebase-measurement-connector:18.0.0] /home/marcelopc/.gradle/caches/transforms-2/files-2.1/beb2c85f23cbbfc472c7c08f07e32621/firebase-measurement-connector-18.0.0/AndroidManifest.xml:17:1-25:12
MERGED from [com.google.android.gms:play-services-stats:17.0.0] /home/marcelopc/.gradle/caches/transforms-2/files-2.1/34784142a427c219547ded4cbf6dd159/play-services-stats-17.0.0/AndroidManifest.xml:2:1-9:12
MERGED from [com.google.android.gms:play-services-basement:17.0.0] /home/marcelopc/.gradle/caches/transforms-2/files-2.1/fec4d98a91c1962ee901c6390035ce34/jetified-play-services-basement-17.0.0/AndroidManifest.xml:17:1-28:12
MERGED from [androidx.fragment:fragment:1.1.0] /home/marcelopc/.gradle/caches/transforms-2/files-2.1/f8bf9d136628091caa9fc08302ad7339/fragment-1.1.0/AndroidManifest.xml:17:1-24:12
MERGED from [androidx.viewpager:viewpager:1.0.0] /home/marcelopc/.gradle/caches/transforms-2/files-2.1/e021bf93b3fdafac1240af276ec3c9b9/viewpager-1.0.0/AndroidManifest.xml:17:1-22:12
MERGED from [androidx.legacy:legacy-support-core-utils:1.0.0] /home/marcelopc/.gradle/caches/transforms-2/files-2.1/c9e152cc6a117c2feb3d0923b83af22d/legacy-support-core-utils-1.0.0/AndroidManifest.xml:17:1-22:12
MERGED from [androidx.loader:loader:1.0.0] /home/marcelopc/.gradle/caches/transforms-2/files-2.1/318dd29d44b9ef92c7dd289eda332f60/loader-1.0.0/AndroidManifest.xml:17:1-22:12
MERGED from [androidx.activity:activity:1.0.0] /home/marcelopc/.gradle/caches/transforms-2/files-2.1/e81a747e4580e8de69b2dd6ed1d4372c/activity-1.0.0/AndroidManifest.xml:17:1-24:12
MERGED from [androidx.customview:customview:1.0.0] /home/marcelopc/.gradle/caches/transforms-2/files-2.1/df5957dac8f6f172706652fb46745c37/customview-1.0.0/AndroidManifest.xml:17:1-22:12
MERGED from [androidx.core:core:1.1.0] /home/marcelopc/.gradle/caches/transforms-2/files-2.1/765d948781557ca60ad60520b9d583b2/core-1.1.0/AndroidManifest.xml:17:1-26:12
MERGED from [androidx.lifecycle:lifecycle-runtime:2.2.0] /home/marcelopc/.gradle/caches/transforms-2/files-2.1/c4323dad5c3ca00547c42ed7ea66c838/lifecycle-runtime-2.2.0/AndroidManifest.xml:17:1-24:12
MERGED from [androidx.savedstate:savedstate:1.0.0] /home/marcelopc/.gradle/caches/transforms-2/files-2.1/35f3fce7d9d5b1641008273dc455a228/savedstate-1.0.0/AndroidManifest.xml:17:1-24:12
MERGED from [androidx.lifecycle:lifecycle-livedata:2.0.0] /home/marcelopc/.gradle/caches/transforms-2/files-2.1/a5b3d7d657c6e576b8a5e32e3c712805/lifecycle-livedata-2.0.0/AndroidManifest.xml:17:1-22:12
MERGED from [androidx.lifecycle:lifecycle-livedata-core:2.0.0] /home/marcelopc/.gradle/caches/transforms-2/files-2.1/115c2101f2da271c7ef1ec0717505bb7/lifecycle-livedata-core-2.0.0/AndroidManifest.xml:17:1-22:12
MERGED from [androidx.localbroadcastmanager:localbroadcastmanager:1.0.0] /home/marcelopc/.gradle/caches/transforms-2/files-2.1/5195d8d1dabbf50f72370dc9b9a9ed29/localbroadcastmanager-1.0.0/AndroidManifest.xml:17:1-22:12
MERGED from [androidx.arch.core:core-runtime:2.0.0] /home/marcelopc/.gradle/caches/transforms-2/files-2.1/883e0037a5500cbec8db6ce8d919ef1e/core-runtime-2.0.0/AndroidManifest.xml:17:1-22:12
MERGED from [androidx.versionedparcelable:versionedparcelable:1.1.0] /home/marcelopc/.gradle/caches/transforms-2/files-2.1/0ff3fb14a005817bd6ffd0a1f54bbab2/versionedparcelable-1.1.0/AndroidManifest.xml:17:1-27:12
MERGED from [com.google.firebase:firebase-components:16.0.0] /home/marcelopc/.gradle/caches/transforms-2/files-2.1/e69a5b692788768f214f51612655e5ae/jetified-firebase-components-16.0.0/AndroidManifest.xml:15:1-23:12
MERGED from [androidx.lifecycle:lifecycle-viewmodel:2.1.0] /home/marcelopc/.gradle/caches/transforms-2/files-2.1/770f717051af90386c0a172c9ad2275d/lifecycle-viewmodel-2.1.0/AndroidManifest.xml:17:1-22:12
MERGED from [androidx.documentfile:documentfile:1.0.0] /home/marcelopc/.gradle/caches/transforms-2/files-2.1/fc1c49fd88466ec8afc9b0e080051146/documentfile-1.0.0/AndroidManifest.xml:17:1-22:12
MERGED from [androidx.print:print:1.0.0] /home/marcelopc/.gradle/caches/transforms-2/files-2.1/54892eee929906e169d64ad24cacecaf/print-1.0.0/AndroidManifest.xml:17:1-22:12
MERGED from [io.grpc:grpc-android:1.21.0] /home/marcelopc/.gradle/caches/transforms-2/files-2.1/ccd6c664c64d60493579babaf9d55530/grpc-android-1.21.0/AndroidManifest.xml:2:1-13:12
MERGED from [com.google.firebase:firebase-database-collection:17.0.0] /home/marcelopc/.gradle/caches/transforms-2/files-2.1/089094ebe7c5dc9e1db264531641cbae/firebase-database-collection-17.0.0/AndroidManifest.xml:2:1-7:12
MERGED from [com.google.firebase:protolite-well-known-types:17.0.0] /home/marcelopc/.gradle/caches/transforms-2/files-2.1/ca38ebbe2b2249639a5f2f716dca608e/protolite-well-known-types-17.0.0/AndroidManifest.xml:2:1-11:12
INJECTED from /home/marcelopc/apps/lojaonline/android/app/src/debug/AndroidManifest.xml:1:1-7:12
INJECTED from /home/marcelopc/apps/lojaonline/android/app/src/debug/AndroidManifest.xml:1:1-7:12
INJECTED from /home/marcelopc/apps/lojaonline/android/app/src/debug/AndroidManifest.xml:1:1-7:12
	package
		ADDED from /home/marcelopc/apps/lojaonline/android/app/src/main/AndroidManifest.xml:2:5-35
		INJECTED from /home/marcelopc/apps/lojaonline/android/app/src/main/AndroidManifest.xml
		INJECTED from /home/marcelopc/apps/lojaonline/android/app/src/debug/AndroidManifest.xml
	android:versionName
		INJECTED from /home/marcelopc/apps/lojaonline/android/app/src/main/AndroidManifest.xml
		ADDED from /home/marcelopc/apps/lojaonline/android/app/src/main/AndroidManifest.xml:1:1-30:12
		INJECTED from /home/marcelopc/apps/lojaonline/android/app/src/debug/AndroidManifest.xml
	android:versionCode
		INJECTED from /home/marcelopc/apps/lojaonline/android/app/src/main/AndroidManifest.xml
		ADDED from /home/marcelopc/apps/lojaonline/android/app/src/main/AndroidManifest.xml:1:1-30:12
		INJECTED from /home/marcelopc/apps/lojaonline/android/app/src/debug/AndroidManifest.xml
	xmlns:android
		ADDED from /home/marcelopc/apps/lojaonline/android/app/src/main/AndroidManifest.xml:1:11-69
application
ADDED from /home/marcelopc/apps/lojaonline/android/app/src/main/AndroidManifest.xml:8:5-29:19
MERGED from [:cloud_firestore] /home/marcelopc/apps/lojaonline/build/cloud_firestore/intermediates/library_manifest/debug/AndroidManifest.xml:7:5-13:19
MERGED from [:cloud_firestore] /home/marcelopc/apps/lojaonline/build/cloud_firestore/intermediates/library_manifest/debug/AndroidManifest.xml:7:5-13:19
MERGED from [:firebase_auth] /home/marcelopc/apps/lojaonline/build/firebase_auth/intermediates/library_manifest/debug/AndroidManifest.xml:7:5-13:19
MERGED from [:firebase_auth] /home/marcelopc/apps/lojaonline/build/firebase_auth/intermediates/library_manifest/debug/AndroidManifest.xml:7:5-13:19
MERGED from [:firebase_core] /home/marcelopc/apps/lojaonline/build/firebase_core/intermediates/library_manifest/debug/AndroidManifest.xml:7:5-13:19
MERGED from [:firebase_core] /home/marcelopc/apps/lojaonline/build/firebase_core/intermediates/library_manifest/debug/AndroidManifest.xml:7:5-13:19
MERGED from [:firebase_messaging] /home/marcelopc/apps/lojaonline/build/firebase_messaging/intermediates/library_manifest/debug/AndroidManifest.xml:7:5-18:19
MERGED from [:firebase_messaging] /home/marcelopc/apps/lojaonline/build/firebase_messaging/intermediates/library_manifest/debug/AndroidManifest.xml:7:5-18:19
MERGED from [:url_launcher] /home/marcelopc/apps/lojaonline/build/url_launcher/intermediates/library_manifest/debug/AndroidManifest.xml:7:5-12:19
MERGED from [:url_launcher] /home/marcelopc/apps/lojaonline/build/url_launcher/intermediates/library_manifest/debug/AndroidManifest.xml:7:5-12:19
MERGED from [com.google.firebase:firebase-messaging:20.0.1] /home/marcelopc/.gradle/caches/transforms-2/files-2.1/6cd6426212cdb1bf79fdfc9b01a079e7/jetified-firebase-messaging-20.0.1/AndroidManifest.xml:22:5-35:19
MERGED from [com.google.firebase:firebase-messaging:20.0.1] /home/marcelopc/.gradle/caches/transforms-2/files-2.1/6cd6426212cdb1bf79fdfc9b01a079e7/jetified-firebase-messaging-20.0.1/AndroidManifest.xml:22:5-35:19
MERGED from [com.google.firebase:firebase-firestore:21.3.0] /home/marcelopc/.gradle/caches/transforms-2/files-2.1/dc0b0281a640e0365d4704daae1fa9b5/jetified-firebase-firestore-21.3.0/AndroidManifest.xml:16:5-24:19
MERGED from [com.google.firebase:firebase-firestore:21.3.0] /home/marcelopc/.gradle/caches/transforms-2/files-2.1/dc0b0281a640e0365d4704daae1fa9b5/jetified-firebase-firestore-21.3.0/AndroidManifest.xml:16:5-24:19
MERGED from [com.google.firebase:firebase-auth:17.0.0] /home/marcelopc/.gradle/caches/transforms-2/files-2.1/24b2885a54d0e5c0779b713addd18cb9/jetified-firebase-auth-17.0.0/AndroidManifest.xml:23:5-40:19
MERGED from [com.google.firebase:firebase-auth:17.0.0] /home/marcelopc/.gradle/caches/transforms-2/files-2.1/24b2885a54d0e5c0779b713addd18cb9/jetified-firebase-auth-17.0.0/AndroidManifest.xml:23:5-40:19
MERGED from [com.google.firebase:firebase-iid:20.0.1] /home/marcelopc/.gradle/caches/transforms-2/files-2.1/fd68efa81c2b8da8d9b8d6caa1349342/firebase-iid-20.0.1/AndroidManifest.xml:28:5-45:19
MERGED from [com.google.firebase:firebase-iid:20.0.1] /home/marcelopc/.gradle/caches/transforms-2/files-2.1/fd68efa81c2b8da8d9b8d6caa1349342/firebase-iid-20.0.1/AndroidManifest.xml:28:5-45:19
MERGED from [com.google.firebase:firebase-auth-interop:18.0.0] /home/marcelopc/.gradle/caches/transforms-2/files-2.1/878a275d5de0f2b801549530282ce765/firebase-auth-interop-18.0.0/AndroidManifest.xml:7:5-8:19
MERGED from [com.google.firebase:firebase-auth-interop:18.0.0] /home/marcelopc/.gradle/caches/transforms-2/files-2.1/878a275d5de0f2b801549530282ce765/firebase-auth-interop-18.0.0/AndroidManifest.xml:7:5-8:19
MERGED from [com.google.firebase:firebase-common:19.3.0] /home/marcelopc/.gradle/caches/transforms-2/files-2.1/7c91a20b951605a6190c91148e86e200/jetified-firebase-common-19.3.0/AndroidManifest.xml:25:5-37:19
MERGED from [com.google.firebase:firebase-common:19.3.0] /home/marcelopc/.gradle/caches/transforms-2/files-2.1/7c91a20b951605a6190c91148e86e200/jetified-firebase-common-19.3.0/AndroidManifest.xml:25:5-37:19
MERGED from [com.google.firebase:firebase-iid-interop:17.0.0] /home/marcelopc/.gradle/caches/transforms-2/files-2.1/9d96085613f94406155ef74cac32e962/firebase-iid-interop-17.0.0/AndroidManifest.xml:7:5-8:19
MERGED from [com.google.firebase:firebase-iid-interop:17.0.0] /home/marcelopc/.gradle/caches/transforms-2/files-2.1/9d96085613f94406155ef74cac32e962/firebase-iid-interop-17.0.0/AndroidManifest.xml:7:5-8:19
MERGED from [com.google.android.gms:play-services-base:17.0.0] /home/marcelopc/.gradle/caches/transforms-2/files-2.1/12172bd92333b24a6ca38dc2aa663cea/play-services-base-17.0.0/AndroidManifest.xml:22:5-27:19
MERGED from [com.google.android.gms:play-services-base:17.0.0] /home/marcelopc/.gradle/caches/transforms-2/files-2.1/12172bd92333b24a6ca38dc2aa663cea/play-services-base-17.0.0/AndroidManifest.xml:22:5-27:19
MERGED from [com.google.android.gms:play-services-tasks:17.0.0] /home/marcelopc/.gradle/caches/transforms-2/files-2.1/b3beacd4a0607e104da108862e66a8bb/play-services-tasks-17.0.0/AndroidManifest.xml:7:5-20
MERGED from [com.google.android.gms:play-services-tasks:17.0.0] /home/marcelopc/.gradle/caches/transforms-2/files-2.1/b3beacd4a0607e104da108862e66a8bb/play-services-tasks-17.0.0/AndroidManifest.xml:7:5-20
MERGED from [com.google.firebase:firebase-measurement-connector:18.0.0] /home/marcelopc/.gradle/caches/transforms-2/files-2.1/beb2c85f23cbbfc472c7c08f07e32621/firebase-measurement-connector-18.0.0/AndroidManifest.xml:22:5-23:19
MERGED from [com.google.firebase:firebase-measurement-connector:18.0.0] /home/marcelopc/.gradle/caches/transforms-2/files-2.1/beb2c85f23cbbfc472c7c08f07e32621/firebase-measurement-connector-18.0.0/AndroidManifest.xml:22:5-23:19
MERGED from [com.google.android.gms:play-services-stats:17.0.0] /home/marcelopc/.gradle/caches/transforms-2/files-2.1/34784142a427c219547ded4cbf6dd159/play-services-stats-17.0.0/AndroidManifest.xml:7:5-20
MERGED from [com.google.android.gms:play-services-stats:17.0.0] /home/marcelopc/.gradle/caches/transforms-2/files-2.1/34784142a427c219547ded4cbf6dd159/play-services-stats-17.0.0/AndroidManifest.xml:7:5-20
MERGED from [com.google.android.gms:play-services-basement:17.0.0] /home/marcelopc/.gradle/caches/transforms-2/files-2.1/fec4d98a91c1962ee901c6390035ce34/jetified-play-services-basement-17.0.0/AndroidManifest.xml:22:5-26:19
MERGED from [com.google.android.gms:play-services-basement:17.0.0] /home/marcelopc/.gradle/caches/transforms-2/files-2.1/fec4d98a91c1962ee901c6390035ce34/jetified-play-services-basement-17.0.0/AndroidManifest.xml:22:5-26:19
MERGED from [androidx.core:core:1.1.0] /home/marcelopc/.gradle/caches/transforms-2/files-2.1/765d948781557ca60ad60520b9d583b2/core-1.1.0/AndroidManifest.xml:24:5-89
MERGED from [androidx.core:core:1.1.0] /home/marcelopc/.gradle/caches/transforms-2/files-2.1/765d948781557ca60ad60520b9d583b2/core-1.1.0/AndroidManifest.xml:24:5-89
MERGED from [androidx.versionedparcelable:versionedparcelable:1.1.0] /home/marcelopc/.gradle/caches/transforms-2/files-2.1/0ff3fb14a005817bd6ffd0a1f54bbab2/versionedparcelable-1.1.0/AndroidManifest.xml:24:5-25:19
MERGED from [androidx.versionedparcelable:versionedparcelable:1.1.0] /home/marcelopc/.gradle/caches/transforms-2/files-2.1/0ff3fb14a005817bd6ffd0a1f54bbab2/versionedparcelable-1.1.0/AndroidManifest.xml:24:5-25:19
	android:appComponentFactory
		ADDED from [androidx.core:core:1.1.0] /home/marcelopc/.gradle/caches/transforms-2/files-2.1/765d948781557ca60ad60520b9d583b2/core-1.1.0/AndroidManifest.xml:24:18-86
	android:label
		ADDED from /home/marcelopc/apps/lojaonline/android/app/src/main/AndroidManifest.xml:10:9-35
	android:icon
		ADDED from /home/marcelopc/apps/lojaonline/android/app/src/main/AndroidManifest.xml:11:9-43
	android:name
		ADDED from /home/marcelopc/apps/lojaonline/android/app/src/main/AndroidManifest.xml:9:9-57
activity#com.lemos.lojaonline.MainActivity
ADDED from /home/marcelopc/apps/lojaonline/android/app/src/main/AndroidManifest.xml:12:9-23:20
	android:launchMode
		ADDED from /home/marcelopc/apps/lojaonline/android/app/src/main/AndroidManifest.xml:14:13-43
	android:hardwareAccelerated
		ADDED from /home/marcelopc/apps/lojaonline/android/app/src/main/AndroidManifest.xml:17:13-47
	android:windowSoftInputMode
		ADDED from /home/marcelopc/apps/lojaonline/android/app/src/main/AndroidManifest.xml:18:13-55
	android:configChanges
		ADDED from /home/marcelopc/apps/lojaonline/android/app/src/main/AndroidManifest.xml:16:13-163
	android:theme
		ADDED from /home/marcelopc/apps/lojaonline/android/app/src/main/AndroidManifest.xml:15:13-47
	android:name
		ADDED from /home/marcelopc/apps/lojaonline/android/app/src/main/AndroidManifest.xml:13:13-41
intent-filter#action:name:android.intent.action.MAIN+category:name:android.intent.category.LAUNCHER
ADDED from /home/marcelopc/apps/lojaonline/android/app/src/main/AndroidManifest.xml:19:13-22:29
action#android.intent.action.MAIN
ADDED from /home/marcelopc/apps/lojaonline/android/app/src/main/AndroidManifest.xml:20:17-68
	android:name
		ADDED from /home/marcelopc/apps/lojaonline/android/app/src/main/AndroidManifest.xml:20:25-66
category#android.intent.category.LAUNCHER
ADDED from /home/marcelopc/apps/lojaonline/android/app/src/main/AndroidManifest.xml:21:17-76
	android:name
		ADDED from /home/marcelopc/apps/lojaonline/android/app/src/main/AndroidManifest.xml:21:27-74
meta-data#flutterEmbedding
ADDED from /home/marcelopc/apps/lojaonline/android/app/src/main/AndroidManifest.xml:26:9-28:33
	android:value
		ADDED from /home/marcelopc/apps/lojaonline/android/app/src/main/AndroidManifest.xml:28:13-30
	android:name
		ADDED from /home/marcelopc/apps/lojaonline/android/app/src/main/AndroidManifest.xml:27:13-44
uses-sdk
INJECTED from /home/marcelopc/apps/lojaonline/android/app/src/main/AndroidManifest.xml reason: use-sdk injection requested
INJECTED from /home/marcelopc/apps/lojaonline/android/app/src/main/AndroidManifest.xml
INJECTED from /home/marcelopc/apps/lojaonline/android/app/src/main/AndroidManifest.xml
MERGED from [:cloud_firestore] /home/marcelopc/apps/lojaonline/build/cloud_firestore/intermediates/library_manifest/debug/AndroidManifest.xml:5:5-44
MERGED from [:cloud_firestore] /home/marcelopc/apps/lojaonline/build/cloud_firestore/intermediates/library_manifest/debug/AndroidManifest.xml:5:5-44
MERGED from [:firebase_auth] /home/marcelopc/apps/lojaonline/build/firebase_auth/intermediates/library_manifest/debug/AndroidManifest.xml:5:5-44
MERGED from [:firebase_auth] /home/marcelopc/apps/lojaonline/build/firebase_auth/intermediates/library_manifest/debug/AndroidManifest.xml:5:5-44
MERGED from [:firebase_core] /home/marcelopc/apps/lojaonline/build/firebase_core/intermediates/library_manifest/debug/AndroidManifest.xml:5:5-44
MERGED from [:firebase_core] /home/marcelopc/apps/lojaonline/build/firebase_core/intermediates/library_manifest/debug/AndroidManifest.xml:5:5-44
MERGED from [:firebase_core_web] /home/marcelopc/apps/lojaonline/build/firebase_core_web/intermediates/library_manifest/debug/AndroidManifest.xml:5:5-44
MERGED from [:firebase_core_web] /home/marcelopc/apps/lojaonline/build/firebase_core_web/intermediates/library_manifest/debug/AndroidManifest.xml:5:5-44
MERGED from [:path_provider] /home/marcelopc/apps/lojaonline/build/path_provider/intermediates/library_manifest/debug/AndroidManifest.xml:5:5-44
MERGED from [:path_provider] /home/marcelopc/apps/lojaonline/build/path_provider/intermediates/library_manifest/debug/AndroidManifest.xml:5:5-44
MERGED from [:path_provider_macos] /home/marcelopc/apps/lojaonline/build/path_provider_macos/intermediates/library_manifest/debug/AndroidManifest.xml:5:5-44
MERGED from [:path_provider_macos] /home/marcelopc/apps/lojaonline/build/path_provider_macos/intermediates/library_manifest/debug/AndroidManifest.xml:5:5-44
MERGED from [:firebase_messaging] /home/marcelopc/apps/lojaonline/build/firebase_messaging/intermediates/library_manifest/debug/AndroidManifest.xml:5:5-44
MERGED from [:firebase_messaging] /home/marcelopc/apps/lojaonline/build/firebase_messaging/intermediates/library_manifest/debug/AndroidManifest.xml:5:5-44
MERGED from [:url_launcher] /home/marcelopc/apps/lojaonline/build/url_launcher/intermediates/library_manifest/debug/AndroidManifest.xml:5:5-44
MERGED from [:url_launcher] /home/marcelopc/apps/lojaonline/build/url_launcher/intermediates/library_manifest/debug/AndroidManifest.xml:5:5-44
MERGED from [:url_launcher_macos] /home/marcelopc/apps/lojaonline/build/url_launcher_macos/intermediates/library_manifest/debug/AndroidManifest.xml:5:5-44
MERGED from [:url_launcher_macos] /home/marcelopc/apps/lojaonline/build/url_launcher_macos/intermediates/library_manifest/debug/AndroidManifest.xml:5:5-44
MERGED from [:url_launcher_web] /home/marcelopc/apps/lojaonline/build/url_launcher_web/intermediates/library_manifest/debug/AndroidManifest.xml:5:5-44
MERGED from [:url_launcher_web] /home/marcelopc/apps/lojaonline/build/url_launcher_web/intermediates/library_manifest/debug/AndroidManifest.xml:5:5-44
MERGED from [androidx.multidex:multidex:2.0.0] /home/marcelopc/.gradle/caches/transforms-2/files-2.1/5fc3fee7c271862c68f6fe7fadbd7329/multidex-2.0.0/AndroidManifest.xml:20:5-43
MERGED from [androidx.multidex:multidex:2.0.0] /home/marcelopc/.gradle/caches/transforms-2/files-2.1/5fc3fee7c271862c68f6fe7fadbd7329/multidex-2.0.0/AndroidManifest.xml:20:5-43
MERGED from [com.google.firebase:firebase-messaging:20.0.1] /home/marcelopc/.gradle/caches/transforms-2/files-2.1/6cd6426212cdb1bf79fdfc9b01a079e7/jetified-firebase-messaging-20.0.1/AndroidManifest.xml:20:5-44
MERGED from [com.google.firebase:firebase-messaging:20.0.1] /home/marcelopc/.gradle/caches/transforms-2/files-2.1/6cd6426212cdb1bf79fdfc9b01a079e7/jetified-firebase-messaging-20.0.1/AndroidManifest.xml:20:5-44
MERGED from [com.google.firebase:firebase-firestore:21.3.0] /home/marcelopc/.gradle/caches/transforms-2/files-2.1/dc0b0281a640e0365d4704daae1fa9b5/jetified-firebase-firestore-21.3.0/AndroidManifest.xml:7:5-9:41
MERGED from [com.google.firebase:firebase-firestore:21.3.0] /home/marcelopc/.gradle/caches/transforms-2/files-2.1/dc0b0281a640e0365d4704daae1fa9b5/jetified-firebase-firestore-21.3.0/AndroidManifest.xml:7:5-9:41
MERGED from [com.google.firebase:firebase-auth:17.0.0] /home/marcelopc/.gradle/caches/transforms-2/files-2.1/24b2885a54d0e5c0779b713addd18cb9/jetified-firebase-auth-17.0.0/AndroidManifest.xml:21:5-44
MERGED from [com.google.firebase:firebase-auth:17.0.0] /home/marcelopc/.gradle/caches/transforms-2/files-2.1/24b2885a54d0e5c0779b713addd18cb9/jetified-firebase-auth-17.0.0/AndroidManifest.xml:21:5-44
MERGED from [com.google.firebase:firebase-iid:20.0.1] /home/marcelopc/.gradle/caches/transforms-2/files-2.1/fd68efa81c2b8da8d9b8d6caa1349342/firebase-iid-20.0.1/AndroidManifest.xml:20:5-44
MERGED from [com.google.firebase:firebase-iid:20.0.1] /home/marcelopc/.gradle/caches/transforms-2/files-2.1/fd68efa81c2b8da8d9b8d6caa1349342/firebase-iid-20.0.1/AndroidManifest.xml:20:5-44
MERGED from [com.google.firebase:firebase-auth-interop:18.0.0] /home/marcelopc/.gradle/caches/transforms-2/files-2.1/878a275d5de0f2b801549530282ce765/firebase-auth-interop-18.0.0/AndroidManifest.xml:5:5-44
MERGED from [com.google.firebase:firebase-auth-interop:18.0.0] /home/marcelopc/.gradle/caches/transforms-2/files-2.1/878a275d5de0f2b801549530282ce765/firebase-auth-interop-18.0.0/AndroidManifest.xml:5:5-44
MERGED from [com.google.firebase:firebase-common:19.3.0] /home/marcelopc/.gradle/caches/transforms-2/files-2.1/7c91a20b951605a6190c91148e86e200/jetified-firebase-common-19.3.0/AndroidManifest.xml:20:5-22:41
MERGED from [com.google.firebase:firebase-common:19.3.0] /home/marcelopc/.gradle/caches/transforms-2/files-2.1/7c91a20b951605a6190c91148e86e200/jetified-firebase-common-19.3.0/AndroidManifest.xml:20:5-22:41
MERGED from [com.google.android.gms:play-services-flags:16.0.1] /home/marcelopc/.gradle/caches/transforms-2/files-2.1/07eed15e86322dbf65996890e900ee71/play-services-flags-16.0.1/AndroidManifest.xml:20:5-44
MERGED from [com.google.android.gms:play-services-flags:16.0.1] /home/marcelopc/.gradle/caches/transforms-2/files-2.1/07eed15e86322dbf65996890e900ee71/play-services-flags-16.0.1/AndroidManifest.xml:20:5-44
MERGED from [com.google.firebase:firebase-iid-interop:17.0.0] /home/marcelopc/.gradle/caches/transforms-2/files-2.1/9d96085613f94406155ef74cac32e962/firebase-iid-interop-17.0.0/AndroidManifest.xml:5:5-44
MERGED from [com.google.firebase:firebase-iid-interop:17.0.0] /home/marcelopc/.gradle/caches/transforms-2/files-2.1/9d96085613f94406155ef74cac32e962/firebase-iid-interop-17.0.0/AndroidManifest.xml:5:5-44
MERGED from [com.google.android.gms:play-services-base:17.0.0] /home/marcelopc/.gradle/caches/transforms-2/files-2.1/12172bd92333b24a6ca38dc2aa663cea/play-services-base-17.0.0/AndroidManifest.xml:20:5-44
MERGED from [com.google.android.gms:play-services-base:17.0.0] /home/marcelopc/.gradle/caches/transforms-2/files-2.1/12172bd92333b24a6ca38dc2aa663cea/play-services-base-17.0.0/AndroidManifest.xml:20:5-44
MERGED from [com.google.android.gms:play-services-tasks:17.0.0] /home/marcelopc/.gradle/caches/transforms-2/files-2.1/b3beacd4a0607e104da108862e66a8bb/play-services-tasks-17.0.0/AndroidManifest.xml:5:5-44
MERGED from [com.google.android.gms:play-services-tasks:17.0.0] /home/marcelopc/.gradle/caches/transforms-2/files-2.1/b3beacd4a0607e104da108862e66a8bb/play-services-tasks-17.0.0/AndroidManifest.xml:5:5-44
MERGED from [com.google.firebase:firebase-measurement-connector:18.0.0] /home/marcelopc/.gradle/caches/transforms-2/files-2.1/beb2c85f23cbbfc472c7c08f07e32621/firebase-measurement-connector-18.0.0/AndroidManifest.xml:20:5-44
MERGED from [com.google.firebase:firebase-measurement-connector:18.0.0] /home/marcelopc/.gradle/caches/transforms-2/files-2.1/beb2c85f23cbbfc472c7c08f07e32621/firebase-measurement-connector-18.0.0/AndroidManifest.xml:20:5-44
MERGED from [com.google.android.gms:play-services-stats:17.0.0] /home/marcelopc/.gradle/caches/transforms-2/files-2.1/34784142a427c219547ded4cbf6dd159/play-services-stats-17.0.0/AndroidManifest.xml:5:5-44
MERGED from [com.google.android.gms:play-services-stats:17.0.0] /home/marcelopc/.gradle/caches/transforms-2/files-2.1/34784142a427c219547ded4cbf6dd159/play-services-stats-17.0.0/AndroidManifest.xml:5:5-44
MERGED from [com.google.android.gms:play-services-basement:17.0.0] /home/marcelopc/.gradle/caches/transforms-2/files-2.1/fec4d98a91c1962ee901c6390035ce34/jetified-play-services-basement-17.0.0/AndroidManifest.xml:20:5-44
MERGED from [com.google.android.gms:play-services-basement:17.0.0] /home/marcelopc/.gradle/caches/transforms-2/files-2.1/fec4d98a91c1962ee901c6390035ce34/jetified-play-services-basement-17.0.0/AndroidManifest.xml:20:5-44
MERGED from [androidx.fragment:fragment:1.1.0] /home/marcelopc/.gradle/caches/transforms-2/files-2.1/f8bf9d136628091caa9fc08302ad7339/fragment-1.1.0/AndroidManifest.xml:20:5-22:41
MERGED from [androidx.fragment:fragment:1.1.0] /home/marcelopc/.gradle/caches/transforms-2/files-2.1/f8bf9d136628091caa9fc08302ad7339/fragment-1.1.0/AndroidManifest.xml:20:5-22:41
MERGED from [androidx.viewpager:viewpager:1.0.0] /home/marcelopc/.gradle/caches/transforms-2/files-2.1/e021bf93b3fdafac1240af276ec3c9b9/viewpager-1.0.0/AndroidManifest.xml:20:5-44
MERGED from [androidx.viewpager:viewpager:1.0.0] /home/marcelopc/.gradle/caches/transforms-2/files-2.1/e021bf93b3fdafac1240af276ec3c9b9/viewpager-1.0.0/AndroidManifest.xml:20:5-44
MERGED from [androidx.legacy:legacy-support-core-utils:1.0.0] /home/marcelopc/.gradle/caches/transforms-2/files-2.1/c9e152cc6a117c2feb3d0923b83af22d/legacy-support-core-utils-1.0.0/AndroidManifest.xml:20:5-44
MERGED from [androidx.legacy:legacy-support-core-utils:1.0.0] /home/marcelopc/.gradle/caches/transforms-2/files-2.1/c9e152cc6a117c2feb3d0923b83af22d/legacy-support-core-utils-1.0.0/AndroidManifest.xml:20:5-44
MERGED from [androidx.loader:loader:1.0.0] /home/marcelopc/.gradle/caches/transforms-2/files-2.1/318dd29d44b9ef92c7dd289eda332f60/loader-1.0.0/AndroidManifest.xml:20:5-44
MERGED from [androidx.loader:loader:1.0.0] /home/marcelopc/.gradle/caches/transforms-2/files-2.1/318dd29d44b9ef92c7dd289eda332f60/loader-1.0.0/AndroidManifest.xml:20:5-44
MERGED from [androidx.activity:activity:1.0.0] /home/marcelopc/.gradle/caches/transforms-2/files-2.1/e81a747e4580e8de69b2dd6ed1d4372c/activity-1.0.0/AndroidManifest.xml:20:5-22:41
MERGED from [androidx.activity:activity:1.0.0] /home/marcelopc/.gradle/caches/transforms-2/files-2.1/e81a747e4580e8de69b2dd6ed1d4372c/activity-1.0.0/AndroidManifest.xml:20:5-22:41
MERGED from [androidx.customview:customview:1.0.0] /home/marcelopc/.gradle/caches/transforms-2/files-2.1/df5957dac8f6f172706652fb46745c37/customview-1.0.0/AndroidManifest.xml:20:5-44
MERGED from [androidx.customview:customview:1.0.0] /home/marcelopc/.gradle/caches/transforms-2/files-2.1/df5957dac8f6f172706652fb46745c37/customview-1.0.0/AndroidManifest.xml:20:5-44
MERGED from [androidx.core:core:1.1.0] /home/marcelopc/.gradle/caches/transforms-2/files-2.1/765d948781557ca60ad60520b9d583b2/core-1.1.0/AndroidManifest.xml:20:5-22:41
MERGED from [androidx.core:core:1.1.0] /home/marcelopc/.gradle/caches/transforms-2/files-2.1/765d948781557ca60ad60520b9d583b2/core-1.1.0/AndroidManifest.xml:20:5-22:41
MERGED from [androidx.lifecycle:lifecycle-runtime:2.2.0] /home/marcelopc/.gradle/caches/transforms-2/files-2.1/c4323dad5c3ca00547c42ed7ea66c838/lifecycle-runtime-2.2.0/AndroidManifest.xml:20:5-22:41
MERGED from [androidx.lifecycle:lifecycle-runtime:2.2.0] /home/marcelopc/.gradle/caches/transforms-2/files-2.1/c4323dad5c3ca00547c42ed7ea66c838/lifecycle-runtime-2.2.0/AndroidManifest.xml:20:5-22:41
MERGED from [androidx.savedstate:savedstate:1.0.0] /home/marcelopc/.gradle/caches/transforms-2/files-2.1/35f3fce7d9d5b1641008273dc455a228/savedstate-1.0.0/AndroidManifest.xml:20:5-22:41
MERGED from [androidx.savedstate:savedstate:1.0.0] /home/marcelopc/.gradle/caches/transforms-2/files-2.1/35f3fce7d9d5b1641008273dc455a228/savedstate-1.0.0/AndroidManifest.xml:20:5-22:41
MERGED from [androidx.lifecycle:lifecycle-livedata:2.0.0] /home/marcelopc/.gradle/caches/transforms-2/files-2.1/a5b3d7d657c6e576b8a5e32e3c712805/lifecycle-livedata-2.0.0/AndroidManifest.xml:20:5-44
MERGED from [androidx.lifecycle:lifecycle-livedata:2.0.0] /home/marcelopc/.gradle/caches/transforms-2/files-2.1/a5b3d7d657c6e576b8a5e32e3c712805/lifecycle-livedata-2.0.0/AndroidManifest.xml:20:5-44
MERGED from [androidx.lifecycle:lifecycle-livedata-core:2.0.0] /home/marcelopc/.gradle/caches/transforms-2/files-2.1/115c2101f2da271c7ef1ec0717505bb7/lifecycle-livedata-core-2.0.0/AndroidManifest.xml:20:5-44
MERGED from [androidx.lifecycle:lifecycle-livedata-core:2.0.0] /home/marcelopc/.gradle/caches/transforms-2/files-2.1/115c2101f2da271c7ef1ec0717505bb7/lifecycle-livedata-core-2.0.0/AndroidManifest.xml:20:5-44
MERGED from [androidx.localbroadcastmanager:localbroadcastmanager:1.0.0] /home/marcelopc/.gradle/caches/transforms-2/files-2.1/5195d8d1dabbf50f72370dc9b9a9ed29/localbroadcastmanager-1.0.0/AndroidManifest.xml:20:5-44
MERGED from [androidx.localbroadcastmanager:localbroadcastmanager:1.0.0] /home/marcelopc/.gradle/caches/transforms-2/files-2.1/5195d8d1dabbf50f72370dc9b9a9ed29/localbroadcastmanager-1.0.0/AndroidManifest.xml:20:5-44
MERGED from [androidx.arch.core:core-runtime:2.0.0] /home/marcelopc/.gradle/caches/transforms-2/files-2.1/883e0037a5500cbec8db6ce8d919ef1e/core-runtime-2.0.0/AndroidManifest.xml:20:5-44
MERGED from [androidx.arch.core:core-runtime:2.0.0] /home/marcelopc/.gradle/caches/transforms-2/files-2.1/883e0037a5500cbec8db6ce8d919ef1e/core-runtime-2.0.0/AndroidManifest.xml:20:5-44
MERGED from [androidx.versionedparcelable:versionedparcelable:1.1.0] /home/marcelopc/.gradle/caches/transforms-2/files-2.1/0ff3fb14a005817bd6ffd0a1f54bbab2/versionedparcelable-1.1.0/AndroidManifest.xml:20:5-22:41
MERGED from [androidx.versionedparcelable:versionedparcelable:1.1.0] /home/marcelopc/.gradle/caches/transforms-2/files-2.1/0ff3fb14a005817bd6ffd0a1f54bbab2/versionedparcelable-1.1.0/AndroidManifest.xml:20:5-22:41
MERGED from [com.google.firebase:firebase-components:16.0.0] /home/marcelopc/.gradle/caches/transforms-2/files-2.1/e69a5b692788768f214f51612655e5ae/jetified-firebase-components-16.0.0/AndroidManifest.xml:19:5-21:41
MERGED from [com.google.firebase:firebase-components:16.0.0] /home/marcelopc/.gradle/caches/transforms-2/files-2.1/e69a5b692788768f214f51612655e5ae/jetified-firebase-components-16.0.0/AndroidManifest.xml:19:5-21:41
MERGED from [androidx.lifecycle:lifecycle-viewmodel:2.1.0] /home/marcelopc/.gradle/caches/transforms-2/files-2.1/770f717051af90386c0a172c9ad2275d/lifecycle-viewmodel-2.1.0/AndroidManifest.xml:20:5-44
MERGED from [androidx.lifecycle:lifecycle-viewmodel:2.1.0] /home/marcelopc/.gradle/caches/transforms-2/files-2.1/770f717051af90386c0a172c9ad2275d/lifecycle-viewmodel-2.1.0/AndroidManifest.xml:20:5-44
MERGED from [androidx.documentfile:documentfile:1.0.0] /home/marcelopc/.gradle/caches/transforms-2/files-2.1/fc1c49fd88466ec8afc9b0e080051146/documentfile-1.0.0/AndroidManifest.xml:20:5-44
MERGED from [androidx.documentfile:documentfile:1.0.0] /home/marcelopc/.gradle/caches/transforms-2/files-2.1/fc1c49fd88466ec8afc9b0e080051146/documentfile-1.0.0/AndroidManifest.xml:20:5-44
MERGED from [androidx.print:print:1.0.0] /home/marcelopc/.gradle/caches/transforms-2/files-2.1/54892eee929906e169d64ad24cacecaf/print-1.0.0/AndroidManifest.xml:20:5-44
MERGED from [androidx.print:print:1.0.0] /home/marcelopc/.gradle/caches/transforms-2/files-2.1/54892eee929906e169d64ad24cacecaf/print-1.0.0/AndroidManifest.xml:20:5-44
MERGED from [io.grpc:grpc-android:1.21.0] /home/marcelopc/.gradle/caches/transforms-2/files-2.1/ccd6c664c64d60493579babaf9d55530/grpc-android-1.21.0/AndroidManifest.xml:7:5-9:41
MERGED from [io.grpc:grpc-android:1.21.0] /home/marcelopc/.gradle/caches/transforms-2/files-2.1/ccd6c664c64d60493579babaf9d55530/grpc-android-1.21.0/AndroidManifest.xml:7:5-9:41
MERGED from [com.google.firebase:firebase-database-collection:17.0.0] /home/marcelopc/.gradle/caches/transforms-2/files-2.1/089094ebe7c5dc9e1db264531641cbae/firebase-database-collection-17.0.0/AndroidManifest.xml:5:5-44
MERGED from [com.google.firebase:firebase-database-collection:17.0.0] /home/marcelopc/.gradle/caches/transforms-2/files-2.1/089094ebe7c5dc9e1db264531641cbae/firebase-database-collection-17.0.0/AndroidManifest.xml:5:5-44
MERGED from [com.google.firebase:protolite-well-known-types:17.0.0] /home/marcelopc/.gradle/caches/transforms-2/files-2.1/ca38ebbe2b2249639a5f2f716dca608e/protolite-well-known-types-17.0.0/AndroidManifest.xml:7:5-9:41
MERGED from [com.google.firebase:protolite-well-known-types:17.0.0] /home/marcelopc/.gradle/caches/transforms-2/files-2.1/ca38ebbe2b2249639a5f2f716dca608e/protolite-well-known-types-17.0.0/AndroidManifest.xml:7:5-9:41
INJECTED from /home/marcelopc/apps/lojaonline/android/app/src/debug/AndroidManifest.xml
INJECTED from /home/marcelopc/apps/lojaonline/android/app/src/debug/AndroidManifest.xml
	android:targetSdkVersion
		INJECTED from /home/marcelopc/apps/lojaonline/android/app/src/main/AndroidManifest.xml
		INJECTED from /home/marcelopc/apps/lojaonline/android/app/src/debug/AndroidManifest.xml
	android:minSdkVersion
		INJECTED from /home/marcelopc/apps/lojaonline/android/app/src/main/AndroidManifest.xml
		INJECTED from /home/marcelopc/apps/lojaonline/android/app/src/debug/AndroidManifest.xml
uses-permission#android.permission.INTERNET
ADDED from /home/marcelopc/apps/lojaonline/android/app/src/debug/AndroidManifest.xml:6:5-66
MERGED from [com.google.firebase:firebase-firestore:21.3.0] /home/marcelopc/.gradle/caches/transforms-2/files-2.1/dc0b0281a640e0365d4704daae1fa9b5/jetified-firebase-firestore-21.3.0/AndroidManifest.xml:14:5-67
MERGED from [com.google.firebase:firebase-firestore:21.3.0] /home/marcelopc/.gradle/caches/transforms-2/files-2.1/dc0b0281a640e0365d4704daae1fa9b5/jetified-firebase-firestore-21.3.0/AndroidManifest.xml:14:5-67
MERGED from [com.google.firebase:firebase-iid:20.0.1] /home/marcelopc/.gradle/caches/transforms-2/files-2.1/fd68efa81c2b8da8d9b8d6caa1349342/firebase-iid-20.0.1/AndroidManifest.xml:23:5-67
MERGED from [com.google.firebase:firebase-iid:20.0.1] /home/marcelopc/.gradle/caches/transforms-2/files-2.1/fd68efa81c2b8da8d9b8d6caa1349342/firebase-iid-20.0.1/AndroidManifest.xml:23:5-67
	android:name
		ADDED from /home/marcelopc/apps/lojaonline/android/app/src/debug/AndroidManifest.xml:6:22-64
service#com.google.firebase.components.ComponentDiscoveryService
ADDED from [:cloud_firestore] /home/marcelopc/apps/lojaonline/build/cloud_firestore/intermediates/library_manifest/debug/AndroidManifest.xml:8:9-12:19
MERGED from [:firebase_auth] /home/marcelopc/apps/lojaonline/build/firebase_auth/intermediates/library_manifest/debug/AndroidManifest.xml:8:9-12:19
MERGED from [:firebase_auth] /home/marcelopc/apps/lojaonline/build/firebase_auth/intermediates/library_manifest/debug/AndroidManifest.xml:8:9-12:19
MERGED from [:firebase_core] /home/marcelopc/apps/lojaonline/build/firebase_core/intermediates/library_manifest/debug/AndroidManifest.xml:8:9-12:19
MERGED from [:firebase_core] /home/marcelopc/apps/lojaonline/build/firebase_core/intermediates/library_manifest/debug/AndroidManifest.xml:8:9-12:19
MERGED from [:firebase_messaging] /home/marcelopc/apps/lojaonline/build/firebase_messaging/intermediates/library_manifest/debug/AndroidManifest.xml:13:9-17:19
MERGED from [:firebase_messaging] /home/marcelopc/apps/lojaonline/build/firebase_messaging/intermediates/library_manifest/debug/AndroidManifest.xml:13:9-17:19
MERGED from [com.google.firebase:firebase-firestore:21.3.0] /home/marcelopc/.gradle/caches/transforms-2/files-2.1/dc0b0281a640e0365d4704daae1fa9b5/jetified-firebase-firestore-21.3.0/AndroidManifest.xml:17:9-23:19
MERGED from [com.google.firebase:firebase-firestore:21.3.0] /home/marcelopc/.gradle/caches/transforms-2/files-2.1/dc0b0281a640e0365d4704daae1fa9b5/jetified-firebase-firestore-21.3.0/AndroidManifest.xml:17:9-23:19
MERGED from [com.google.firebase:firebase-auth:17.0.0] /home/marcelopc/.gradle/caches/transforms-2/files-2.1/24b2885a54d0e5c0779b713addd18cb9/jetified-firebase-auth-17.0.0/AndroidManifest.xml:33:9-39:19
MERGED from [com.google.firebase:firebase-auth:17.0.0] /home/marcelopc/.gradle/caches/transforms-2/files-2.1/24b2885a54d0e5c0779b713addd18cb9/jetified-firebase-auth-17.0.0/AndroidManifest.xml:33:9-39:19
MERGED from [com.google.firebase:firebase-iid:20.0.1] /home/marcelopc/.gradle/caches/transforms-2/files-2.1/fd68efa81c2b8da8d9b8d6caa1349342/firebase-iid-20.0.1/AndroidManifest.xml:29:9-35:19
MERGED from [com.google.firebase:firebase-iid:20.0.1] /home/marcelopc/.gradle/caches/transforms-2/files-2.1/fd68efa81c2b8da8d9b8d6caa1349342/firebase-iid-20.0.1/AndroidManifest.xml:29:9-35:19
MERGED from [com.google.firebase:firebase-common:19.3.0] /home/marcelopc/.gradle/caches/transforms-2/files-2.1/7c91a20b951605a6190c91148e86e200/jetified-firebase-common-19.3.0/AndroidManifest.xml:32:9-36:35
MERGED from [com.google.firebase:firebase-common:19.3.0] /home/marcelopc/.gradle/caches/transforms-2/files-2.1/7c91a20b951605a6190c91148e86e200/jetified-firebase-common-19.3.0/AndroidManifest.xml:32:9-36:35
	android:exported
		ADDED from [com.google.firebase:firebase-firestore:21.3.0] /home/marcelopc/.gradle/caches/transforms-2/files-2.1/dc0b0281a640e0365d4704daae1fa9b5/jetified-firebase-firestore-21.3.0/AndroidManifest.xml:19:13-37
	tools:targetApi
		ADDED from [com.google.firebase:firebase-common:19.3.0] /home/marcelopc/.gradle/caches/transforms-2/files-2.1/7c91a20b951605a6190c91148e86e200/jetified-firebase-common-19.3.0/AndroidManifest.xml:36:13-32
	android:directBootAware
		ADDED from [com.google.firebase:firebase-common:19.3.0] /home/marcelopc/.gradle/caches/transforms-2/files-2.1/7c91a20b951605a6190c91148e86e200/jetified-firebase-common-19.3.0/AndroidManifest.xml:34:13-43
	android:name
		ADDED from [:cloud_firestore] /home/marcelopc/apps/lojaonline/build/cloud_firestore/intermediates/library_manifest/debug/AndroidManifest.xml:8:18-89
meta-data#com.google.firebase.components:io.flutter.plugins.firebase.cloudfirestore.FlutterFirebaseAppRegistrar
ADDED from [:cloud_firestore] /home/marcelopc/apps/lojaonline/build/cloud_firestore/intermediates/library_manifest/debug/AndroidManifest.xml:9:13-11:85
	android:value
		ADDED from [:cloud_firestore] /home/marcelopc/apps/lojaonline/build/cloud_firestore/intermediates/library_manifest/debug/AndroidManifest.xml:11:17-82
	android:name
		ADDED from [:cloud_firestore] /home/marcelopc/apps/lojaonline/build/cloud_firestore/intermediates/library_manifest/debug/AndroidManifest.xml:10:17-133
meta-data#com.google.firebase.components:io.flutter.plugins.firebaseauth.FlutterFirebaseAppRegistrar
ADDED from [:firebase_auth] /home/marcelopc/apps/lojaonline/build/firebase_auth/intermediates/library_manifest/debug/AndroidManifest.xml:9:13-11:85
	android:value
		ADDED from [:firebase_auth] /home/marcelopc/apps/lojaonline/build/firebase_auth/intermediates/library_manifest/debug/AndroidManifest.xml:11:17-82
	android:name
		ADDED from [:firebase_auth] /home/marcelopc/apps/lojaonline/build/firebase_auth/intermediates/library_manifest/debug/AndroidManifest.xml:10:17-122
meta-data#com.google.firebase.components:io.flutter.plugins.firebase.core.FlutterFirebaseAppRegistrar
ADDED from [:firebase_core] /home/marcelopc/apps/lojaonline/build/firebase_core/intermediates/library_manifest/debug/AndroidManifest.xml:9:13-11:85
	android:value
		ADDED from [:firebase_core] /home/marcelopc/apps/lojaonline/build/firebase_core/intermediates/library_manifest/debug/AndroidManifest.xml:11:17-82
	android:name
		ADDED from [:firebase_core] /home/marcelopc/apps/lojaonline/build/firebase_core/intermediates/library_manifest/debug/AndroidManifest.xml:10:17-123
service#io.flutter.plugins.firebasemessaging.FlutterFirebaseMessagingService
ADDED from [:firebase_messaging] /home/marcelopc/apps/lojaonline/build/firebase_messaging/intermediates/library_manifest/debug/AndroidManifest.xml:8:9-12:19
	android:name
		ADDED from [:firebase_messaging] /home/marcelopc/apps/lojaonline/build/firebase_messaging/intermediates/library_manifest/debug/AndroidManifest.xml:8:18-101
intent-filter#action:name:com.google.firebase.MESSAGING_EVENT
ADDED from [:firebase_messaging] /home/marcelopc/apps/lojaonline/build/firebase_messaging/intermediates/library_manifest/debug/AndroidManifest.xml:9:13-11:29
action#com.google.firebase.MESSAGING_EVENT
ADDED from [:firebase_messaging] /home/marcelopc/apps/lojaonline/build/firebase_messaging/intermediates/library_manifest/debug/AndroidManifest.xml:10:17-78
	android:name
		ADDED from [:firebase_messaging] /home/marcelopc/apps/lojaonline/build/firebase_messaging/intermediates/library_manifest/debug/AndroidManifest.xml:10:25-75
meta-data#com.google.firebase.components:io.flutter.plugins.firebasemessaging.FlutterFirebaseAppRegistrar
ADDED from [:firebase_messaging] /home/marcelopc/apps/lojaonline/build/firebase_messaging/intermediates/library_manifest/debug/AndroidManifest.xml:14:13-16:85
	android:value
		ADDED from [:firebase_messaging] /home/marcelopc/apps/lojaonline/build/firebase_messaging/intermediates/library_manifest/debug/AndroidManifest.xml:16:17-82
	android:name
		ADDED from [:firebase_messaging] /home/marcelopc/apps/lojaonline/build/firebase_messaging/intermediates/library_manifest/debug/AndroidManifest.xml:15:17-127
activity#io.flutter.plugins.urllauncher.WebViewActivity
ADDED from [:url_launcher] /home/marcelopc/apps/lojaonline/build/url_launcher/intermediates/library_manifest/debug/AndroidManifest.xml:8:9-11:74
	android:exported
		ADDED from [:url_launcher] /home/marcelopc/apps/lojaonline/build/url_launcher/intermediates/library_manifest/debug/AndroidManifest.xml:10:13-37
	android:theme
		ADDED from [:url_launcher] /home/marcelopc/apps/lojaonline/build/url_launcher/intermediates/library_manifest/debug/AndroidManifest.xml:11:13-71
	android:name
		ADDED from [:url_launcher] /home/marcelopc/apps/lojaonline/build/url_launcher/intermediates/library_manifest/debug/AndroidManifest.xml:9:13-74
service#com.google.firebase.messaging.FirebaseMessagingService
ADDED from [com.google.firebase:firebase-messaging:20.0.1] /home/marcelopc/.gradle/caches/transforms-2/files-2.1/6cd6426212cdb1bf79fdfc9b01a079e7/jetified-firebase-messaging-20.0.1/AndroidManifest.xml:28:9-34:19
	android:exported
		ADDED from [com.google.firebase:firebase-messaging:20.0.1] /home/marcelopc/.gradle/caches/transforms-2/files-2.1/6cd6426212cdb1bf79fdfc9b01a079e7/jetified-firebase-messaging-20.0.1/AndroidManifest.xml:30:13-37
	android:name
		ADDED from [com.google.firebase:firebase-messaging:20.0.1] /home/marcelopc/.gradle/caches/transforms-2/files-2.1/6cd6426212cdb1bf79fdfc9b01a079e7/jetified-firebase-messaging-20.0.1/AndroidManifest.xml:29:13-82
uses-permission#android.permission.ACCESS_NETWORK_STATE
ADDED from [com.google.firebase:firebase-firestore:21.3.0] /home/marcelopc/.gradle/caches/transforms-2/files-2.1/dc0b0281a640e0365d4704daae1fa9b5/jetified-firebase-firestore-21.3.0/AndroidManifest.xml:13:5-79
MERGED from [com.google.firebase:firebase-iid:20.0.1] /home/marcelopc/.gradle/caches/transforms-2/files-2.1/fd68efa81c2b8da8d9b8d6caa1349342/firebase-iid-20.0.1/AndroidManifest.xml:22:5-79
MERGED from [com.google.firebase:firebase-iid:20.0.1] /home/marcelopc/.gradle/caches/transforms-2/files-2.1/fd68efa81c2b8da8d9b8d6caa1349342/firebase-iid-20.0.1/AndroidManifest.xml:22:5-79
MERGED from [io.grpc:grpc-android:1.21.0] /home/marcelopc/.gradle/caches/transforms-2/files-2.1/ccd6c664c64d60493579babaf9d55530/grpc-android-1.21.0/AndroidManifest.xml:11:5-79
MERGED from [io.grpc:grpc-android:1.21.0] /home/marcelopc/.gradle/caches/transforms-2/files-2.1/ccd6c664c64d60493579babaf9d55530/grpc-android-1.21.0/AndroidManifest.xml:11:5-79
	android:name
		ADDED from [com.google.firebase:firebase-firestore:21.3.0] /home/marcelopc/.gradle/caches/transforms-2/files-2.1/dc0b0281a640e0365d4704daae1fa9b5/jetified-firebase-firestore-21.3.0/AndroidManifest.xml:13:22-76
meta-data#com.google.firebase.components:com.google.firebase.firestore.FirestoreRegistrar
ADDED from [com.google.firebase:firebase-firestore:21.3.0] /home/marcelopc/.gradle/caches/transforms-2/files-2.1/dc0b0281a640e0365d4704daae1fa9b5/jetified-firebase-firestore-21.3.0/AndroidManifest.xml:20:13-22:85
	android:value
		ADDED from [com.google.firebase:firebase-firestore:21.3.0] /home/marcelopc/.gradle/caches/transforms-2/files-2.1/dc0b0281a640e0365d4704daae1fa9b5/jetified-firebase-firestore-21.3.0/AndroidManifest.xml:22:17-82
	android:name
		ADDED from [com.google.firebase:firebase-firestore:21.3.0] /home/marcelopc/.gradle/caches/transforms-2/files-2.1/dc0b0281a640e0365d4704daae1fa9b5/jetified-firebase-firestore-21.3.0/AndroidManifest.xml:21:17-111
activity#com.google.firebase.auth.internal.FederatedSignInActivity
ADDED from [com.google.firebase:firebase-auth:17.0.0] /home/marcelopc/.gradle/caches/transforms-2/files-2.1/24b2885a54d0e5c0779b713addd18cb9/jetified-firebase-auth-17.0.0/AndroidManifest.xml:24:9-31:50
	android:excludeFromRecents
		ADDED from [com.google.firebase:firebase-auth:17.0.0] /home/marcelopc/.gradle/caches/transforms-2/files-2.1/24b2885a54d0e5c0779b713addd18cb9/jetified-firebase-auth-17.0.0/AndroidManifest.xml:26:13-46
	android:launchMode
		ADDED from [com.google.firebase:firebase-auth:17.0.0] /home/marcelopc/.gradle/caches/transforms-2/files-2.1/24b2885a54d0e5c0779b713addd18cb9/jetified-firebase-auth-17.0.0/AndroidManifest.xml:28:13-44
	android:exported
		ADDED from [com.google.firebase:firebase-auth:17.0.0] /home/marcelopc/.gradle/caches/transforms-2/files-2.1/24b2885a54d0e5c0779b713addd18cb9/jetified-firebase-auth-17.0.0/AndroidManifest.xml:27:13-36
	android:permission
		ADDED from [com.google.firebase:firebase-auth:17.0.0] /home/marcelopc/.gradle/caches/transforms-2/files-2.1/24b2885a54d0e5c0779b713addd18cb9/jetified-firebase-auth-17.0.0/AndroidManifest.xml:29:13-102
	android:theme
		ADDED from [com.google.firebase:firebase-auth:17.0.0] /home/marcelopc/.gradle/caches/transforms-2/files-2.1/24b2885a54d0e5c0779b713addd18cb9/jetified-firebase-auth-17.0.0/AndroidManifest.xml:30:13-72
	tools:replace
		ADDED from [com.google.firebase:firebase-auth:17.0.0] /home/marcelopc/.gradle/caches/transforms-2/files-2.1/24b2885a54d0e5c0779b713addd18cb9/jetified-firebase-auth-17.0.0/AndroidManifest.xml:31:13-47
	android:name
		ADDED from [com.google.firebase:firebase-auth:17.0.0] /home/marcelopc/.gradle/caches/transforms-2/files-2.1/24b2885a54d0e5c0779b713addd18cb9/jetified-firebase-auth-17.0.0/AndroidManifest.xml:25:13-85
meta-data#com.google.firebase.components:com.google.firebase.auth.FirebaseAuthRegistrar
ADDED from [com.google.firebase:firebase-auth:17.0.0] /home/marcelopc/.gradle/caches/transforms-2/files-2.1/24b2885a54d0e5c0779b713addd18cb9/jetified-firebase-auth-17.0.0/AndroidManifest.xml:36:13-38:85
	android:value
		ADDED from [com.google.firebase:firebase-auth:17.0.0] /home/marcelopc/.gradle/caches/transforms-2/files-2.1/24b2885a54d0e5c0779b713addd18cb9/jetified-firebase-auth-17.0.0/AndroidManifest.xml:38:17-82
	android:name
		ADDED from [com.google.firebase:firebase-auth:17.0.0] /home/marcelopc/.gradle/caches/transforms-2/files-2.1/24b2885a54d0e5c0779b713addd18cb9/jetified-firebase-auth-17.0.0/AndroidManifest.xml:37:17-109
uses-permission#android.permission.WAKE_LOCK
ADDED from [com.google.firebase:firebase-iid:20.0.1] /home/marcelopc/.gradle/caches/transforms-2/files-2.1/fd68efa81c2b8da8d9b8d6caa1349342/firebase-iid-20.0.1/AndroidManifest.xml:24:5-68
	android:name
		ADDED from [com.google.firebase:firebase-iid:20.0.1] /home/marcelopc/.gradle/caches/transforms-2/files-2.1/fd68efa81c2b8da8d9b8d6caa1349342/firebase-iid-20.0.1/AndroidManifest.xml:24:22-65
uses-permission#com.google.android.c2dm.permission.RECEIVE
ADDED from [com.google.firebase:firebase-iid:20.0.1] /home/marcelopc/.gradle/caches/transforms-2/files-2.1/fd68efa81c2b8da8d9b8d6caa1349342/firebase-iid-20.0.1/AndroidManifest.xml:26:5-82
	android:name
		ADDED from [com.google.firebase:firebase-iid:20.0.1] /home/marcelopc/.gradle/caches/transforms-2/files-2.1/fd68efa81c2b8da8d9b8d6caa1349342/firebase-iid-20.0.1/AndroidManifest.xml:26:22-79
meta-data#com.google.firebase.components:com.google.firebase.iid.Registrar
ADDED from [com.google.firebase:firebase-iid:20.0.1] /home/marcelopc/.gradle/caches/transforms-2/files-2.1/fd68efa81c2b8da8d9b8d6caa1349342/firebase-iid-20.0.1/AndroidManifest.xml:32:13-34:85
	android:value
		ADDED from [com.google.firebase:firebase-iid:20.0.1] /home/marcelopc/.gradle/caches/transforms-2/files-2.1/fd68efa81c2b8da8d9b8d6caa1349342/firebase-iid-20.0.1/AndroidManifest.xml:34:17-82
	android:name
		ADDED from [com.google.firebase:firebase-iid:20.0.1] /home/marcelopc/.gradle/caches/transforms-2/files-2.1/fd68efa81c2b8da8d9b8d6caa1349342/firebase-iid-20.0.1/AndroidManifest.xml:33:17-96
receiver#com.google.firebase.iid.FirebaseInstanceIdReceiver
ADDED from [com.google.firebase:firebase-iid:20.0.1] /home/marcelopc/.gradle/caches/transforms-2/files-2.1/fd68efa81c2b8da8d9b8d6caa1349342/firebase-iid-20.0.1/AndroidManifest.xml:37:9-44:20
	android:exported
		ADDED from [com.google.firebase:firebase-iid:20.0.1] /home/marcelopc/.gradle/caches/transforms-2/files-2.1/fd68efa81c2b8da8d9b8d6caa1349342/firebase-iid-20.0.1/AndroidManifest.xml:39:13-36
	android:permission
		ADDED from [com.google.firebase:firebase-iid:20.0.1] /home/marcelopc/.gradle/caches/transforms-2/files-2.1/fd68efa81c2b8da8d9b8d6caa1349342/firebase-iid-20.0.1/AndroidManifest.xml:40:13-73
	android:name
		ADDED from [com.google.firebase:firebase-iid:20.0.1] /home/marcelopc/.gradle/caches/transforms-2/files-2.1/fd68efa81c2b8da8d9b8d6caa1349342/firebase-iid-20.0.1/AndroidManifest.xml:38:13-78
intent-filter#action:name:com.google.android.c2dm.intent.RECEIVE
ADDED from [com.google.firebase:firebase-iid:20.0.1] /home/marcelopc/.gradle/caches/transforms-2/files-2.1/fd68efa81c2b8da8d9b8d6caa1349342/firebase-iid-20.0.1/AndroidManifest.xml:41:13-43:29
action#com.google.android.c2dm.intent.RECEIVE
ADDED from [com.google.firebase:firebase-iid:20.0.1] /home/marcelopc/.gradle/caches/transforms-2/files-2.1/fd68efa81c2b8da8d9b8d6caa1349342/firebase-iid-20.0.1/AndroidManifest.xml:42:17-81
	android:name
		ADDED from [com.google.firebase:firebase-iid:20.0.1] /home/marcelopc/.gradle/caches/transforms-2/files-2.1/fd68efa81c2b8da8d9b8d6caa1349342/firebase-iid-20.0.1/AndroidManifest.xml:42:25-78
provider#com.google.firebase.provider.FirebaseInitProvider
ADDED from [com.google.firebase:firebase-common:19.3.0] /home/marcelopc/.gradle/caches/transforms-2/files-2.1/7c91a20b951605a6190c91148e86e200/jetified-firebase-common-19.3.0/AndroidManifest.xml:26:9-30:39
	android:authorities
		ADDED from [com.google.firebase:firebase-common:19.3.0] /home/marcelopc/.gradle/caches/transforms-2/files-2.1/7c91a20b951605a6190c91148e86e200/jetified-firebase-common-19.3.0/AndroidManifest.xml:28:13-72
	android:exported
		ADDED from [com.google.firebase:firebase-common:19.3.0] /home/marcelopc/.gradle/caches/transforms-2/files-2.1/7c91a20b951605a6190c91148e86e200/jetified-firebase-common-19.3.0/AndroidManifest.xml:29:13-37
	android:initOrder
		ADDED from [com.google.firebase:firebase-common:19.3.0] /home/marcelopc/.gradle/caches/transforms-2/files-2.1/7c91a20b951605a6190c91148e86e200/jetified-firebase-common-19.3.0/AndroidManifest.xml:30:13-36
	android:name
		ADDED from [com.google.firebase:firebase-common:19.3.0] /home/marcelopc/.gradle/caches/transforms-2/files-2.1/7c91a20b951605a6190c91148e86e200/jetified-firebase-common-19.3.0/AndroidManifest.xml:27:13-77
activity#com.google.android.gms.common.api.GoogleApiActivity
ADDED from [com.google.android.gms:play-services-base:17.0.0] /home/marcelopc/.gradle/caches/transforms-2/files-2.1/12172bd92333b24a6ca38dc2aa663cea/play-services-base-17.0.0/AndroidManifest.xml:23:9-26:75
	android:exported
		ADDED from [com.google.android.gms:play-services-base:17.0.0] /home/marcelopc/.gradle/caches/transforms-2/files-2.1/12172bd92333b24a6ca38dc2aa663cea/play-services-base-17.0.0/AndroidManifest.xml:25:13-37
	android:theme
		ADDED from [com.google.android.gms:play-services-base:17.0.0] /home/marcelopc/.gradle/caches/transforms-2/files-2.1/12172bd92333b24a6ca38dc2aa663cea/play-services-base-17.0.0/AndroidManifest.xml:26:13-72
	android:name
		ADDED from [com.google.android.gms:play-services-base:17.0.0] /home/marcelopc/.gradle/caches/transforms-2/files-2.1/12172bd92333b24a6ca38dc2aa663cea/play-services-base-17.0.0/AndroidManifest.xml:24:13-79
meta-data#com.google.android.gms.version
ADDED from [com.google.android.gms:play-services-basement:17.0.0] /home/marcelopc/.gradle/caches/transforms-2/files-2.1/fec4d98a91c1962ee901c6390035ce34/jetified-play-services-basement-17.0.0/AndroidManifest.xml:23:9-25:69
	android:value
		ADDED from [com.google.android.gms:play-services-basement:17.0.0] /home/marcelopc/.gradle/caches/transforms-2/files-2.1/fec4d98a91c1962ee901c6390035ce34/jetified-play-services-basement-17.0.0/AndroidManifest.xml:25:13-66
	android:name
		ADDED from [com.google.android.gms:play-services-basement:17.0.0] /home/marcelopc/.gradle/caches/transforms-2/files-2.1/fec4d98a91c1962ee901c6390035ce34/jetified-play-services-basement-17.0.0/AndroidManifest.xml:24:13-58
